…
We can also extract the posterior probabilities by setting `return_posterior_probs` to `TRUE`:

``` r
m3 <- create_profiles_lpa(d, broad_interest, enjoyment, self_efficacy, n_profiles = 3, model = 2, return_posterior_probs = TRUE)
#> Model with 3 profiles using the 'varying means, equal variances and covariances' model.
#> AIC is 32198.704
#> BIC is 32310.725
#> ICL is 33168.746
#> Entropy is 0.93051
m3
#> # A tibble: 5,375 x 5
#>    broad_interest enjoyment self_efficacy profile posterior_prob
#>  *          <dbl>     <dbl>         <dbl>   <dbl>          <dbl>
#>  1            3.8       4.0         1.000       1        0.96594
#>  2            3.0       3.0         2.750       2        0.97333
#>  3            1.8       2.8         3.375       2        0.98003
#>  4            1.4       1.0         2.750       3        0.99949
#>  5            1.8       2.2         2.000       2        0.98567
#>  6            1.6       1.6         1.875       3        0.87652
#>  7            3.0       3.8         2.250       1        0.92046
#>  8            2.6       2.2         2.000       2        0.95714
#>  9            1.0       2.8         2.625       2        0.94357
#> 10            2.2       2.0         1.750       2        0.80086
#> # ... with 5,365 more rows
```
…
