Introduction to tidyLPA • tidyLPA
…
m3 <- create_profiles_lpa(d, broad_interest, enjoyment, self_efficacy, n_profiles = 3, model = 2, return_posterior_probs = TRUE)

## Model with 3 profiles using the 'varying means, equal variances and covariances' model.

## AIC is 608.386

## BIC is 651.622

## ICL is 660.138

## Entropy is 0.96017

m3

## # A tibble: 94 x 5
##    broad_interest enjoyment self_efficacy profile posterior_prob
##  *          <dbl>     <dbl>         <dbl>   <dbl>          <dbl>
##  1            2.0       2.0         2.000       1        0.99460
##  2            3.0       2.2         2.500       3        0.98820
##  3            2.4       3.0         2.625       3        0.99828
##  4            1.0       2.2         2.625       1        1.00000
##  5            3.0       3.0         1.000       3        0.99904
##  6            3.4       4.0         2.250       2        0.93555
##  7            4.2       2.8         3.000       2        0.99996
##  8            2.6       2.8         1.750       3        0.99177
##  9            4.0       3.0         2.000       2        0.97699
## 10            3.0       2.4         2.000       3        0.99831
## # ... with 84 more rows
…
