Estimate parameters for profiles for a specific solution — estimate_profiles • tidyLPA
…
    Details

    Creates profiles (or estimates of the mixture components) for a specific mclust model in terms of the specific number of mixture components and the structure of the residual covariance matrix

    Examples

estimate_profiles(iris,
    Sepal.Length, Sepal.Width, Petal.Length, Petal.Width,
    n_profiles = 3)
#> Fit Equal variances and covariances fixed to 0 (model 1) model with 3 profiles.
#> LogLik is 361.429
#> BIC is 813.05
#> Entropy is 0.979
#> # A tibble: 150 x 6
#>    Sepal.Length Sepal.Width Petal.Length Petal.Width profile posterior_prob
#>           <dbl>       <dbl>        <dbl>       <dbl> <fct>            <dbl>
#>  1          5.1         3.5          1.4         0.2 1                    1
#>  2          4.9         3            1.4         0.2 1                    1
#>  3          4.7         3.2          1.3         0.2 1                    1
#>  4          4.6         3.1          1.5         0.2 1                    1
#>  5          5           3.6          1.4         0.2 1                    1
#>  6          5.4         3.9          1.7         0.4 1                    1
#>  7          4.6         3.4          1.4         0.3 1                    1
#>  8          5           3.4          1.5         0.2 1                    1
#>  9          4.4         2.9          1.4         0.2 1                    1
#> 10          4.9         3.1          1.5         0.1 1                    1
#> # ... with 140 more rows
…
